{
    "path": "D:/01_PASCAL/01_UNITY/00_MofalibPackaging/mofalibPackagingUnityProject/Assets/StreamingAssets/maconfig.json",
    "Number": 10,
    "Size": 10.0,
    "Col": {
        "r": 1.0,
        "g": 0.0,
        "b": 0.0,
        "a": 0.0
    }
}